<svg width="34" height="28" viewBox="0 0 34 28" fill="none" xmlns="http://www.w3.org/2000/svg">
<path d="M2.93711 17.856C6.48963 23.6126 11.4796 27.1959 17 27.1959C23.6156 27.1959 29.4646 22.0553 33 14.1905C29.4646 6.32572 23.619 1.18518 17 1.18518C10.381 1.18518 4.5354 6.32572 1 14.1905" stroke="#171321" stroke-width="0.673684" stroke-miterlimit="10"/>
<path d="M23.0266 12.8216C25.5783 12.8216 27.6469 10.753 27.6469 8.20125C27.6469 5.64952 25.5783 3.58093 23.0266 3.58093C20.4748 3.58093 18.4062 5.64952 18.4062 8.20125C18.4062 10.753 20.4748 12.8216 23.0266 12.8216Z" stroke="#171321" stroke-width="0.673684" stroke-miterlimit="10"/>
<path d="M24.0367 12.7086C24.136 13.1877 24.1907 13.6806 24.1907 14.1905C24.1907 18.1606 20.9736 21.3777 17.0036 21.3777C13.0335 21.3777 9.81641 18.1606 9.81641 14.1905C9.81641 10.2205 13.0335 7.00336 17.0036 7.00336C17.5272 7.00336 18.0372 7.05812 18.5266 7.16421" stroke="#171321" stroke-width="0.673684" stroke-miterlimit="10"/>
</svg>
