<svg width="81" height="30" viewBox="0 0 81 30" fill="none" xmlns="http://www.w3.org/2000/svg">
<g clip-path="url(#clip0_126_12148)">
<path d="M14.6426 15V8.49468H9.67799L7.01025 5.82693V0.862305H0.504883V7.36767H5.48376L8.15154 10.0354V13.4736L5.48376 16.1413H0.504883V22.6467H7.01025V17.682L9.67799 15.0143H14.6426V15H14.6426ZM2.67331 3.03076H4.84176V5.19924H2.67331V3.03076ZM4.84176 20.464H2.67331V18.2955H4.84176V20.464Z" fill="#FFAE1A"/>
<path d="M21.847 29.1378H18.9795V15H21.847V15.856C22.3035 15.2996 23.3306 14.7718 24.4291 14.7718C27.4393 14.7718 29.1369 17.2683 29.1369 20.1787C29.1369 23.0889 27.425 25.557 24.4291 25.557C23.3163 25.557 22.3035 25.0291 21.847 24.4727V29.1378H21.847ZM21.847 21.862C22.1894 22.5753 22.9598 23.0604 23.7872 23.0604C25.3422 23.0604 26.2552 21.8192 26.2552 20.1786C26.2552 18.5095 25.3279 17.2683 23.7872 17.2683C22.9312 17.2683 22.1894 17.7819 21.847 18.4667V21.862Z" fill="black"/>
<path d="M39.5371 25.3287H36.6696V24.3871C36.0989 25.0291 35.1003 25.5713 33.9019 25.5713C31.5908 25.5713 30.2783 24.0448 30.2783 21.7622V15.0001H33.1458V21.163C33.1458 22.2472 33.6737 22.9891 34.815 22.9891C35.6994 22.9891 36.4556 22.4612 36.6695 21.5625V15.0001H39.5513V25.3287H39.5371Z" fill="black"/>
<path d="M44.3018 29.1378H41.4343V15H44.3018V15.856C44.7583 15.2996 45.7855 14.7718 46.884 14.7718C49.8941 14.7718 51.5918 17.2683 51.5918 20.1787C51.5918 23.0889 49.8799 25.557 46.884 25.557C45.7712 25.557 44.7583 25.0291 44.3018 24.4727V29.1378ZM44.3018 21.862C44.6442 22.5753 45.4146 23.0604 46.242 23.0604C47.797 23.0604 48.7101 21.8192 48.7101 20.1786C48.7101 18.5095 47.7827 17.2683 46.242 17.2683C45.386 17.2683 44.6442 17.7819 44.3018 18.4667V21.862Z" fill="black"/>
<path d="M55.7147 29.1378H52.8472V15H55.7147V15.856C56.1712 15.2996 57.1983 14.7718 58.2968 14.7718C61.307 14.7718 63.0046 17.2683 63.0046 20.1787C63.0046 23.0889 61.2927 25.557 58.2968 25.557C57.184 25.557 56.1712 25.0291 55.7147 24.4727V29.1378ZM55.7147 21.862C56.0571 22.5753 56.8274 23.0604 57.6548 23.0604C59.2099 23.0604 60.1229 21.8192 60.1229 20.1786C60.1229 18.5095 59.1956 17.2683 57.6548 17.2683C56.7989 17.2683 56.057 17.7819 55.7147 18.4667V21.862Z" fill="black"/>
<path d="M73.2907 21.9476C72.9198 24.1446 71.3077 25.557 68.7113 25.557C65.7011 25.557 63.7039 23.36 63.7039 20.1787C63.7039 17.0544 65.7867 14.7718 68.6685 14.7718C71.6929 14.7718 73.362 16.8689 73.362 19.9076V20.7921H66.4715C66.5571 22.3471 67.4416 23.2601 68.7113 23.2601C69.6813 23.2601 70.3947 22.8464 70.6229 21.9619H73.2907V21.9476V21.9476ZM66.5428 19.0373H70.5373C70.5088 17.9531 69.8668 17.0971 68.6827 17.0971C67.5842 17.0971 66.7996 17.7677 66.5428 19.0373Z" fill="black"/>
<path d="M75.2309 17.3112H73.6616V15.0001H75.2309V12.2039H78.0699V15.0001H80.3382V17.3112H78.0699V21.8335C78.0699 22.6467 78.5121 23.0176 79.2539 23.0176C79.6962 23.0176 80.1812 22.875 80.4951 22.6752V25.2146C80.0956 25.4286 79.4109 25.5427 78.6405 25.5427C76.5434 25.5427 75.2166 24.5013 75.2166 22.2187V17.3112H75.2309V17.3112Z" fill="black"/>
</g>
<defs>
<clipPath id="clip0_126_12148">
<rect width="80" height="28.3299" fill="white" transform="translate(0.5 0.835083)"/>
</clipPath>
</defs>
</svg>
