<svg xmlns="http://www.w3.org/2000/svg" id="CK-Logo" width="123.015" height="26.759" viewBox="0 0 123.015 26.759">
    <path id="Pfad_3909" d="M123.938 75.288l-1.283 12.656-.3 2.773c-.057.264-.226.509-.717.641a2.676 2.676 0 0 1-.415.094.4.4 0 0 1-.49-.434l1.113-14.524a.691.691 0 0 0-.66-.754h-.075a.691.691 0 0 0-.754.66l-1.132 14.863a.647.647 0 0 1-.585.6l-.585.057a.5.5 0 0 1-.528-.49l.3-15.467a.713.713 0 0 0-.679-.736h-.075a.713.713 0 0 0-.736.679l-.3 15.58a.573.573 0 0 1-.547.547h-.622a.577.577 0 0 1-.566-.547L113.941 77a.7.7 0 0 0-.736-.679h-.075a.7.7 0 0 0-.679.736l.358 14.373a.486.486 0 0 1-.528.49l-.566-.057a.647.647 0 0 1-.585-.6l-1.093-14.693a.726.726 0 0 0-.754-.66h-.075a.726.726 0 0 0-.66.754l1.075 14.354a.406.406 0 0 1-.49.434l-.453-.113c-.509-.151-.66-.4-.717-.679-.038-.4-.264-2.641-.283-2.716-.283-2.754-1.264-12.411-1.264-12.411-.019-.924-.038-1.32.905-1.792 2.546-1.264 5.791-.057 5.791-.057l1.679-.641a9.966 9.966 0 0 1 7.865.641c.453.264 1.358.7 1.283 1.6M122.2 93.471s0 .641-.019.962c-.019.4-.019.868-.792 1.056a24.849 24.849 0 0 1-12.449 0c-.792-.207-.773-.622-.792-1-.019-.321-.019-1.019-.019-1.037a.521.521 0 0 1 .679-.547 32.672 32.672 0 0 0 12.694 0 .546.546 0 0 1 .7.566m3-19.824a9.054 9.054 0 0 0-3.225-1.962 12 12 0 0 0-8.846.415l-.34-.094a8.8 8.8 0 0 0-6.338.472c-.943.509-1.377.924-1.528 1.584a3.977 3.977 0 0 0-.075 1.584.17.17 0 0 0 .019.094c.226 2.678 1.7 15.882 1.716 15.9.245 2.622-.132 3.678.4 4.376a.819.819 0 0 0 .113.132 2.828 2.828 0 0 0 1.056.6c.094.038.207.075.3.113a12.453 12.453 0 0 0 1.339.4 27.622 27.622 0 0 0 10.751 0 11.292 11.292 0 0 0 1.339-.4c.094-.038.207-.075.3-.113a3.239 3.239 0 0 0 1.056-.6.82.82 0 0 0 .113-.132c.528-.7.17-1.754.4-4.376 0-.019 1.49-13.222 1.716-15.9a.141.141 0 0 1 .019-.094c.132-1.415-.094-1.716-.283-2" fill="#3b8047" transform="translate(-104.815 -71.031)"/>
    <path id="Pfad_3910" d="M256.281 120.073a7.06 7.06 0 0 1-2.452-.434 5.393 5.393 0 0 1-2-1.264 6.07 6.07 0 0 1-1.339-2.056 7.867 7.867 0 0 1-.49-2.867 7.586 7.586 0 0 1 .509-2.848 6.434 6.434 0 0 1 1.4-2.131 5.749 5.749 0 0 1 2.056-1.32 6.788 6.788 0 0 1 2.49-.453 5.239 5.239 0 0 1 2.263.49 5.439 5.439 0 0 1 .66.358 1.107 1.107 0 0 1 .245 1.7l-.057.057a1.123 1.123 0 0 1-1.415.207 2.417 2.417 0 0 0-.377-.207 3.169 3.169 0 0 0-1.32-.264 3.334 3.334 0 0 0-2.584 1.132 4.571 4.571 0 0 0-1.019 3.169 4.929 4.929 0 0 0 .943 3.244 3.125 3.125 0 0 0 2.546 1.132 3.653 3.653 0 0 0 1.547-.321 3.8 3.8 0 0 0 .472-.264 1.121 1.121 0 0 1 1.433.17l.057.057a1.109 1.109 0 0 1-.189 1.679 5.41 5.41 0 0 1-3.376 1.037" fill="#3b8047" transform="translate(-222.615 -99.972)"/>
    <path id="Pfad_3911" d="M387.2 120.012v-10.073a1.344 1.344 0 0 1 1.339-1.339h5.979a1.034 1.034 0 0 1 1.037 1.037v.113a1.034 1.034 0 0 1-1.037 1.037h-4.508v2.735h3.584a1.172 1.172 0 0 1 1.169 1.151v.113a1.175 1.175 0 0 1-1.169 1.169h-3.584v3.207h4.734a1.034 1.034 0 0 1 1.037 1.037v.113a1.034 1.034 0 0 1-1.037 1.037h-6.224a1.316 1.316 0 0 1-1.32-1.339" fill="#3b8047" transform="translate(-333.937 -101.514)"/>
    <path id="Pfad_3912" d="M445 120.012v-10.073a1.344 1.344 0 0 1 1.339-1.339h6.036a1.034 1.034 0 0 1 1.037 1.037v.113a1.034 1.034 0 0 1-1.037 1.037h-4.546v2.735h3.622a1.143 1.143 0 0 1 1.151 1.151v.113a1.163 1.163 0 0 1-1.169 1.169h-3.623v4.055a1.344 1.344 0 0 1-1.339 1.339h-.132a1.321 1.321 0 0 1-1.339-1.337" fill="#3b8047" transform="translate(-380.834 -101.514)"/>
    <path id="Pfad_3913" d="M315.4 120.012v-10.073a1.344 1.344 0 0 1 1.339-1.339h.132a1.344 1.344 0 0 1 1.339 1.339v3.584h5.13v-3.584a1.344 1.344 0 0 1 1.339-1.339h.132a1.344 1.344 0 0 1 1.339 1.339v10.072a1.344 1.344 0 0 1-1.339 1.339h-.132a1.344 1.344 0 0 1-1.339-1.339v-4.055h-5.13v4.055a1.344 1.344 0 0 1-1.339 1.339h-.132a1.321 1.321 0 0 1-1.339-1.339" fill="#3b8047" transform="translate(-275.679 -101.514)"/>
    <path id="Pfad_3914" d="M640.981 120.073a7.06 7.06 0 0 1-2.452-.434 5.393 5.393 0 0 1-2-1.264 6.07 6.07 0 0 1-1.339-2.056 7.869 7.869 0 0 1-.49-2.867 7.587 7.587 0 0 1 .509-2.848 6.433 6.433 0 0 1 1.4-2.131 5.749 5.749 0 0 1 2.056-1.32 6.789 6.789 0 0 1 2.49-.453 5.239 5.239 0 0 1 2.263.49 5.447 5.447 0 0 1 .66.358 1.107 1.107 0 0 1 .245 1.7l-.057.057a1.123 1.123 0 0 1-1.415.207 2.411 2.411 0 0 0-.377-.207 3.169 3.169 0 0 0-1.32-.264 3.334 3.334 0 0 0-2.584 1.132 4.571 4.571 0 0 0-1.018 3.169 4.93 4.93 0 0 0 .943 3.244 3.125 3.125 0 0 0 2.546 1.132 3.654 3.654 0 0 0 1.547-.321 3.8 3.8 0 0 0 .471-.264 1.121 1.121 0 0 1 1.434.17l.057.057a1.109 1.109 0 0 1-.189 1.679 5.41 5.41 0 0 1-3.376 1.037" fill="#3b8047" transform="translate(-534.753 -99.972)"/>
    <path id="Pfad_3915" d="M700 120.012v-10.073a1.344 1.344 0 0 1 1.339-1.339h.132a1.344 1.344 0 0 1 1.339 1.339v3.584h5.131v-3.584a1.344 1.344 0 0 1 1.339-1.339h.132a1.344 1.344 0 0 1 1.339 1.339v10.072a1.344 1.344 0 0 1-1.339 1.339h-.132a1.344 1.344 0 0 1-1.339-1.339v-4.055h-5.131v4.055a1.344 1.344 0 0 1-1.339 1.339h-.132a1.321 1.321 0 0 1-1.339-1.338" fill="#3b8047" transform="translate(-587.737 -101.514)"/>
    <path id="Pfad_3916" d="M501 119.93v-10.072a1.344 1.344 0 0 1 1.339-1.339h.132a1.344 1.344 0 0 1 1.339 1.339v4h.075l4.074-4.942a1.1 1.1 0 0 1 .868-.415h.151a1.134 1.134 0 0 1 .886 1.848l-2.641 3.225 3.659 5.847a1.206 1.206 0 0 1-1.037 1.848h-.145a1.2 1.2 0 0 1-1.037-.585l-3.075-5.149-1.792 1.924v2.471a1.344 1.344 0 0 1-1.339 1.339h-.132A1.316 1.316 0 0 1 501 119.93" fill="#3b8047" transform="translate(-426.272 -101.433)"/>
    <path id="Pfad_3917" d="M566.787 117.734a2.831 2.831 0 0 0 2.377-1.169 5.244 5.244 0 0 0 .886-3.225 5.007 5.007 0 0 0-.886-3.15 2.848 2.848 0 0 0-2.377-1.132 2.894 2.894 0 0 0-2.414 1.132 5.006 5.006 0 0 0-.868 3.15 5.281 5.281 0 0 0 .868 3.225 2.852 2.852 0 0 0 2.414 1.169m0 2.339a6.392 6.392 0 0 1-2.509-.472 5.43 5.43 0 0 1-1.962-1.339 6.064 6.064 0 0 1-1.264-2.113 8.243 8.243 0 0 1-.453-2.829 8.022 8.022 0 0 1 .453-2.792 5.98 5.98 0 0 1 1.264-2.094 5.416 5.416 0 0 1 1.962-1.3 6.742 6.742 0 0 1 2.509-.434 6.617 6.617 0 0 1 2.471.453 5.581 5.581 0 0 1 1.962 1.3 5.731 5.731 0 0 1 1.264 2.075 8.1 8.1 0 0 1 .453 2.792 8.246 8.246 0 0 1-.453 2.829 6.063 6.063 0 0 1-1.264 2.113 5.5 5.5 0 0 1-1.962 1.339 6.27 6.27 0 0 1-2.471.472" fill="#3b8047" transform="translate(-474.63 -99.972)"/>
</svg>
