<?xml version="1.0" encoding="UTF-8"?>
<svg id="Layer_1" data-name="Layer 1" xmlns="http://www.w3.org/2000/svg" xmlns:xlink="http://www.w3.org/1999/xlink" viewBox="0 0 950 650">
  <defs>
    <style>
      .cls-1 {
        fill: url(#linear-gradient);
      }

      .cls-1, .cls-2, .cls-3, .cls-4, .cls-5, .cls-6, .cls-7, .cls-8, .cls-9, .cls-10 {
        stroke-width: 0px;
      }

      .cls-11 {
        filter: url(#drop-shadow-2);
      }

      .cls-12 {
        opacity: .7;
      }

      .cls-12, .cls-13, .cls-14 {
        isolation: isolate;
      }

      .cls-2 {
        fill: url(#linear-gradient-4);
      }

      .cls-3 {
        fill: url(#linear-gradient-2);
      }

      .cls-4 {
        fill: url(#linear-gradient-3);
      }

      .cls-5 {
        fill: url(#linear-gradient-8);
      }

      .cls-6 {
        fill: url(#linear-gradient-5);
      }

      .cls-7 {
        fill: url(#linear-gradient-6);
      }

      .cls-13 {
        fill: none;
        opacity: .35;
        stroke: url(#linear-gradient-7);
        stroke-miterlimit: 10;
        stroke-width: 14px;
      }

      .cls-14 {
        opacity: .15;
      }

      .cls-8 {
        fill: #171321;
      }

      .cls-9 {
        fill: #171322;
      }

      .cls-10 {
        fill: #fff;
      }
    </style>
    <linearGradient id="linear-gradient" x1="347.08" y1="12.15" x2="611.68" y2="327.49" gradientUnits="userSpaceOnUse">
      <stop offset="0" stop-color="#f9a026" stop-opacity=".1"/>
      <stop offset=".5" stop-color="#f9a026" stop-opacity=".5"/>
      <stop offset=".77" stop-color="#7759bf" stop-opacity=".5"/>
      <stop offset="1" stop-color="#7759bf" stop-opacity=".1"/>
    </linearGradient>
    <linearGradient id="linear-gradient-2" x1="379.78" y1="341.34" x2="589.08" y2="590.78" xlink:href="#linear-gradient"/>
    <linearGradient id="linear-gradient-3" x1="479.38" y1="182.68" x2="479.38" y2="505.47" gradientUnits="userSpaceOnUse">
      <stop offset="0" stop-color="#a686f2"/>
      <stop offset=".88" stop-color="#5829c8"/>
    </linearGradient>
    <linearGradient id="linear-gradient-4" x1="802.82" y1="587.39" x2="802.82" y2="344.08" gradientUnits="userSpaceOnUse">
      <stop offset="0" stop-color="#dd4329" stop-opacity=".61"/>
      <stop offset=".74" stop-color="#ffc581"/>
    </linearGradient>
    <linearGradient id="linear-gradient-5" x1="3800.63" y1="1621.31" x2="3800.63" y2="1377.99" gradientTransform="translate(3844.87 1970.45) rotate(-135) scale(1 -1)" xlink:href="#linear-gradient-4"/>
    <linearGradient id="linear-gradient-6" x1="73.22" y1="344.08" x2="885.54" y2="344.08" gradientUnits="userSpaceOnUse">
      <stop offset=".33" stop-color="#10acac" stop-opacity=".61"/>
      <stop offset=".91" stop-color="#6fd5c4"/>
    </linearGradient>
    <linearGradient id="linear-gradient-7" x1="103.22" y1="344.08" x2="855.54" y2="344.08" xlink:href="#linear-gradient-6"/>
    <linearGradient id="linear-gradient-8" x1="479.38" y1="519.47" x2="479.38" y2="168.68" gradientUnits="userSpaceOnUse">
      <stop offset="0" stop-color="#10aeae" stop-opacity="0"/>
      <stop offset=".48" stop-color="#21b5b2" stop-opacity=".8"/>
      <stop offset="1" stop-color="#6fd7c6" stop-opacity="0"/>
    </linearGradient>
    <filter id="drop-shadow-2" filterUnits="userSpaceOnUse">
      <feOffset dx="0" dy="2"/>
      <feGaussianBlur result="blur" stdDeviation="2"/>
      <feFlood flood-color="#fff" flood-opacity=".25"/>
      <feComposite in2="blur" operator="in"/>
      <feComposite in="SourceGraphic"/>
    </filter>
  </defs>
  <g>
    <path class="cls-1" d="m237.33,218.27v-76.13l10.64-.35c80.69-2.63,139.54-28.13,174.7-49.06,22.77-13.55,39.34-27.3,49.24-36.44l7.46-6.9,7.46,6.9c9.9,9.15,26.47,22.89,49.24,36.44,35.17,20.93,94.02,46.43,174.7,49.06l10.64.35v76.13h20.41v-96.9l-10.38.17c-2.42.04-4.82.06-7.22.06-65.38,0-124.57-15.26-175.93-45.36-38.48-22.55-58.79-46.04-60.79-48.41l-8.11-9.14-8.49,9.5h0c-3.42,3.98-23.59,26.43-60.48,48.05-51.36,30.1-110.57,45.36-175.98,45.36-2.38,0-4.77-.02-7.17-.06l-10.38-.17v96.9h20.41Z"/>
    <path class="cls-3" d="m689.19,453.07c-16.98,31.95-40.41,60.9-69.72,85.58-30.32,25.53-71.1,46.38-136.38,69.71l-3.7,1.32-3.7-1.32c-65.27-23.33-106.06-44.18-136.38-69.71-29.32-24.69-52.74-53.64-69.72-85.58h-22.95c18.47,38.02,45.25,72.33,79.53,101.19,33.24,27.99,78.06,50.68,149.84,75.86l3.38,1.18,3.38-1.18c71.79-25.18,116.6-47.87,149.85-75.86,34.28-28.86,61.06-63.18,79.53-101.19h-22.95Z"/>
  </g>
  <path class="cls-4" d="m742.63,195.18c-19.18-8.05-40.24-12.5-62.34-12.5-11.14,0-22.02,1.13-32.52,3.29-23.62,4.84-45.35,14.84-63.97,28.77-.3.22-56.54,42.77-104.41,79-47.88-36.23-104.11-78.78-104.41-79-18.61-13.94-40.35-23.94-63.97-28.77-10.51-2.15-21.38-3.29-32.52-3.29-22.1,0-43.16,4.45-62.34,12.5-58.1,24.4-98.91,81.88-98.91,148.9s40.84,124.53,98.98,148.92c19.16,8.03,40.2,12.47,62.28,12.47,35.96,0,69.18-11.78,96-31.69l104.9-79.39,104.91,79.39c26.82,19.92,60.04,31.69,96,31.69,22.07,0,43.12-4.44,62.28-12.47,58.14-24.39,98.98-81.88,98.98-148.92s-40.81-124.5-98.91-148.9Zm-419,215.84c-12.87,8.68-28.36,13.75-45.04,13.75-44.53,0-80.64-36.13-80.64-80.69s36.1-80.7,80.64-80.7c19.66,0,37.67,7.04,51.66,18.74l9.63,7.21,72.88,54.81-89.13,66.88Zm356.56,13.75c-16.68,0-32.18-5.07-45.04-13.75l-89.13-66.88,82.51-62.02c13.99-11.7,32.01-18.74,51.66-18.74,44.53,0,80.64,36.13,80.64,80.7s-36.1,80.69-80.64,80.69Z"/>
  <g class="cls-12">
    <path class="cls-2" d="m682.3,587.39l-.16-21.87c.74,0,1.48-.02,2.22-.03l.41,21.86c-.82.02-1.64.03-2.46.03Zm17.96-.81l-1.78-21.79c.74-.06,1.48-.12,2.22-.19l2,21.77c-.81.08-1.63.15-2.45.21Zm17.84-2.12l-3.36-21.61c.73-.11,1.46-.23,2.19-.35l3.61,21.56c-.81.14-1.62.27-2.44.39Zm17.66-3.44l-4.97-21.29c.72-.17,1.44-.34,2.16-.52l5.2,21.24c-.8.19-1.59.39-2.39.57Zm17.36-4.74l-6.56-20.86c.71-.22,1.42-.45,2.13-.68l6.76,20.79c-.78.25-1.55.5-2.33.75Zm16.95-6.02l-8.09-20.31c.69-.28,1.38-.55,2.07-.84l8.29,20.23c-.76.31-1.51.62-2.27.92Zm16.43-7.25l-9.57-19.66c.67-.32,1.33-.65,1.99-.98l9.77,19.56c-.73.36-1.46.72-2.2,1.08Zm15.84-8.45l-10.99-18.9c.64-.37,1.28-.75,1.92-1.13l11.19,18.79c-.7.42-1.41.83-2.11,1.24Zm15.18-9.6l-12.36-18.04c.61-.42,1.23-.85,1.84-1.27l12.52,17.92c-.67.47-1.34.93-2.01,1.39Zm14.43-10.69l-13.64-17.09c.58-.46,1.16-.93,1.73-1.4l13.82,16.94c-.63.52-1.27,1.03-1.91,1.54Zm13.62-11.73l-14.86-16.04c.54-.5,1.09-1.01,1.63-1.52l15.02,15.89c-.59.56-1.19,1.12-1.79,1.68Zm12.72-12.7l-16-14.9c.51-.54,1.01-1.09,1.51-1.64l16.16,14.73c-.55.61-1.11,1.21-1.67,1.81Zm11.76-13.59l-17.04-13.7c.46-.58.92-1.16,1.38-1.74l17.19,13.51c-.51.65-1.02,1.29-1.53,1.93Zm10.74-14.44l-18.01-12.39c.42-.61.84-1.23,1.26-1.85l18.14,12.21c-.46.68-.92,1.36-1.38,2.03Zm9.64-15.19l-18.88-11.04c.38-.64.75-1.29,1.11-1.93l18.99,10.83c-.41.71-.82,1.42-1.23,2.13Zm8.5-15.88l-19.65-9.59c.33-.67.65-1.34.97-2.02l19.74,9.39c-.35.74-.71,1.48-1.07,2.21Zm7.3-16.46l-20.31-8.11c.28-.69.55-1.39.82-2.08l20.39,7.9c-.3.76-.6,1.53-.9,2.29Zm6.05-16.97l-20.85-6.57c.22-.71.45-1.43.66-2.14l20.92,6.37c-.24.79-.48,1.57-.73,2.35Zm4.77-17.35l-21.28-5.01c.17-.72.34-1.45.5-2.17l21.34,4.78c-.18.8-.36,1.6-.55,2.4Zm3.46-17.65l-21.6-3.41c.12-.74.23-1.47.34-2.21l21.63,3.2c-.12.81-.24,1.62-.37,2.42Zm2.15-17.84l-21.79-1.82c.06-.74.12-1.48.17-2.23l21.81,1.6c-.06.82-.12,1.63-.19,2.45Zm.83-17.95l-21.86-.22c0-.74.01-1.49.01-2.23h21.87c0,.82,0,1.64-.01,2.45Z"/>
  </g>
  <g class="cls-12">
    <path class="cls-6" d="m96.2,514.65c-.57-.58-1.13-1.16-1.7-1.74l15.73-15.19c.52.54,1.04,1.08,1.57,1.61l-15.6,15.32Zm-12.11-13.25c-.53-.62-1.05-1.25-1.58-1.88l16.81-13.99c.48.57.96,1.14,1.44,1.71l-16.67,14.15Zm-11.13-14.13c-.48-.66-.95-1.32-1.43-1.98l17.79-12.71c.43.6.87,1.21,1.31,1.81l-17.67,12.88Zm-10.04-14.9c-.43-.69-.86-1.39-1.28-2.08l18.69-11.35c.39.63.77,1.27,1.17,1.9l-18.58,11.54Zm-8.91-15.61c-.38-.72-.75-1.45-1.12-2.17l19.48-9.93c.34.66.68,1.32,1.02,1.98l-19.38,10.13Zm-7.73-16.23c-.32-.75-.64-1.5-.96-2.25l20.17-8.45c.29.68.58,1.37.87,2.05l-20.08,8.66Zm-6.5-16.76c-.27-.77-.53-1.54-.79-2.32l20.73-6.94c.24.71.48,1.41.72,2.11l-20.67,7.14Zm-5.24-17.19c-.21-.79-.42-1.58-.62-2.38l21.19-5.38c.18.72.37,1.44.56,2.15l-21.13,5.61Zm-3.96-17.53c-.15-.81-.3-1.61-.44-2.42l21.53-3.8c.13.73.26,1.46.4,2.19l-21.49,4.04Zm-2.66-17.79c-.09-.81-.18-1.62-.26-2.43l21.75-2.22c.08.74.15,1.48.24,2.23l-21.73,2.42Zm-1.34-17.93c-.03-.81-.06-1.63-.08-2.44l21.86-.62c.02.75.05,1.49.07,2.24l-21.85.82Zm21.83-17.2l-21.85-.78c.03-.82.06-1.63.1-2.45l21.84,1c-.03.74-.06,1.49-.09,2.23Zm1.18-16.32l-21.73-2.39c.09-.81.18-1.62.28-2.43l21.71,2.6c-.09.74-.17,1.48-.26,2.23Zm2.38-16.21l-21.5-3.96c.15-.81.3-1.61.46-2.42l21.46,4.2c-.14.73-.28,1.46-.42,2.19Zm3.57-15.97l-21.15-5.54c.21-.79.42-1.59.64-2.38l21.09,5.77c-.2.72-.39,1.43-.58,2.15Zm4.74-15.67l-20.68-7.09c.27-.78.54-1.55.81-2.33l20.61,7.31c-.25.7-.49,1.4-.73,2.1Zm5.89-15.27l-20.1-8.62c.32-.75.65-1.51.98-2.26l20,8.83c-.3.68-.6,1.36-.89,2.05Zm7.01-14.8l-19.4-10.08c.38-.73.76-1.46,1.15-2.18l19.29,10.29c-.35.66-.7,1.31-1.04,1.97Zm8.09-14.23l-18.59-11.51c.43-.7.87-1.39,1.3-2.08l18.48,11.69c-.4.63-.8,1.26-1.19,1.9Zm9.13-13.6l-17.69-12.85c.48-.66.97-1.32,1.46-1.98l17.56,13.03c-.45.6-.89,1.2-1.33,1.81Zm10.12-12.89l-16.69-14.13c.53-.62,1.06-1.25,1.6-1.87l16.55,14.29c-.49.57-.98,1.13-1.46,1.71Zm11.04-12.12l-15.61-15.31c.57-.58,1.15-1.16,1.72-1.74l15.46,15.46c-.53.53-1.05,1.06-1.57,1.59Z"/>
  </g>
  <g class="cls-14">
    <path class="cls-7" d="m680.29,549.47c-44.4,0-86.66-13.96-122.23-40.37l-.11-.08-78.57-59.45-78.73,59.58c-35.53,26.38-77.77,40.32-122.17,40.32-27.47,0-54.15-5.35-79.29-15.89-76.52-32.1-125.96-106.48-125.96-189.5s49.41-157.36,125.88-189.47c25.2-10.57,51.9-15.93,79.38-15.93,13.89,0,27.8,1.41,41.35,4.18,29.56,6.06,56.84,18.28,81.08,36.34l.46.35c1.44,1.09,8.76,6.62,78.01,59.02,68.22-51.62,76.53-57.9,78.03-59.03,24.37-18.25,51.79-30.58,81.52-36.67,13.55-2.78,27.46-4.18,41.35-4.18,27.47,0,54.18,5.36,79.36,15.93,76.48,32.12,125.89,106.49,125.89,189.47s-49.44,157.39-125.96,189.49c-25.15,10.55-51.83,15.9-79.3,15.9Zm-104.29-64.41c30.34,22.51,66.4,34.41,104.29,34.41,23.46,0,46.24-4.56,67.69-13.56,65.34-27.41,107.56-90.93,107.56-161.83s-42.2-134.39-107.5-161.81c-21.49-9.02-44.29-13.59-67.75-13.59-11.87,0-23.76,1.2-35.33,3.57-25.37,5.2-48.76,15.72-69.53,31.27-1.48,1.11-10.08,7.62-82.16,62.16l-13.88,10.5-13.88-10.5c-73.15-55.36-80.72-61.07-82.19-62.18l-.34-.26c-20.68-15.4-43.95-25.83-69.16-30.99-11.57-2.37-23.46-3.57-35.33-3.57-23.47,0-46.27,4.57-67.77,13.59-65.3,27.42-107.49,90.93-107.49,161.8s42.22,134.42,107.57,161.83c21.45,9,44.23,13.56,67.69,13.56,37.89,0,73.93-11.89,104.24-34.38l96.66-73.15,96.61,73.11Z"/>
  </g>
  <path class="cls-13" d="m680.29,512.47c-36.36,0-70.97-11.42-100.1-33.02l-100.8-76.28-100.87,76.34c-29.06,21.55-63.67,32.97-100.03,32.97-22.53,0-44.39-4.38-64.98-13.02-62.74-26.32-103.27-87.31-103.27-155.38s40.51-129.03,103.2-155.35c20.63-8.66,42.52-13.05,65.05-13.05,11.4,0,22.82,1.15,33.93,3.43,24.19,4.96,46.52,14.96,66.37,29.74l.32.24c1.46,1.1,9.01,6.8,82.18,62.17l18.1,13.7,18.1-13.7c74.03-56.02,80.75-61.1,82.17-62.17,19.91-14.91,42.35-25,66.7-29.99,11.11-2.28,22.52-3.43,33.93-3.43,22.53,0,44.42,4.39,65.05,13.04,62.69,26.33,103.21,87.31,103.21,155.35s-40.54,129.06-103.27,155.38c-20.59,8.64-42.46,13.02-64.98,13.02Z"/>
  <path class="cls-5" d="m680.29,519.47c-37.87,0-73.93-11.89-104.27-34.4l-96.63-73.13-96.65,73.14c-30.35,22.51-66.38,34.38-104.25,34.38-23.46,0-46.24-4.56-67.69-13.56-65.34-27.41-107.57-90.93-107.57-161.83s42.19-134.38,107.49-161.81c21.5-9.02,44.29-13.59,67.76-13.59,11.87,0,23.76,1.2,35.33,3.57,25.2,5.16,48.46,15.59,69.15,30.98l.37.28c1.46,1.1,9.03,6.82,82.18,62.17l13.88,10.5,13.88-10.5c74-55.99,80.74-61.09,82.19-62.18,20.76-15.54,44.14-26.05,69.51-31.25,11.57-2.37,23.46-3.57,35.33-3.57,23.47,0,46.26,4.57,67.76,13.59,65.3,27.42,107.5,90.94,107.5,161.81s-42.22,134.42-107.56,161.83c-21.45,9-44.23,13.56-67.69,13.56Zm-200.9-125.08l105.03,79.48c27.86,20.66,61.03,31.6,95.88,31.6,21.59,0,42.55-4.2,62.28-12.47,60.13-25.22,98.98-83.68,98.98-148.92s-38.83-123.67-98.92-148.9c-19.77-8.29-40.74-12.5-62.34-12.5-10.93,0-21.87,1.11-32.52,3.29-23.33,4.78-44.83,14.45-63.91,28.74-1.38,1.04-8.31,6.28-82.14,62.15l-22.33,16.89-22.33-16.89c-73.14-55.34-80.7-61.06-82.17-62.16l-.34-.25c-18.98-14.12-40.38-23.71-63.55-28.46-10.65-2.18-21.59-3.29-32.52-3.29-21.6,0-42.57,4.21-62.34,12.5-60.09,25.23-98.91,83.68-98.91,148.9s38.85,123.7,98.98,148.92c19.73,8.28,40.68,12.47,62.27,12.47,34.84,0,67.99-10.92,95.86-31.59l105.04-79.49Z"/>
  <g>
    <path class="cls-9" d="m343.7,196.44l-54.95,12.44,13.11,57.94c2.27.68,4.5,1.47,6.68,2.34l-12.62-55.75,56.5-12.79c-2.86-1.48-5.77-2.87-8.73-4.18Z"/>
    <path class="cls-9" d="m203.29,372.96c-1.2-3.14-2.22-6.36-3.02-9.68l-19.01,55.42-54.02-18.53c.92,2.48,1.9,4.93,2.93,7.35l54.82,18.81,18.31-53.36Z"/>
    <polygon class="cls-9" points="355.39 387.18 413.14 387.18 413.14 444.52 419.14 439.98 419.14 381.18 363.39 381.18 355.39 387.18"/>
    <path class="cls-9" d="m474.37,289.95l-66.65,50.4,4.99,3.75,66.63-50.39c-1.65-1.25-3.31-2.5-4.97-3.76Z"/>
    <polygon class="cls-9" points="548.67 342.09 479.45 394.44 484.42 398.2 550.98 347.86 546.01 344.14 548.69 342.13 548.67 342.09"/>
    <polygon class="cls-9" points="542.9 390.38 599.64 384.38 592.59 379.09 536.31 385.05 542.33 442.03 548.89 446.99 542.9 390.38"/>
    <path class="cls-9" d="m758.94,361.38c-.75,3.42-1.7,6.76-2.86,10l17.97,51.48,56.34-19.66c.94-2.4,1.83-4.83,2.66-7.28l-55.31,19.3-18.79-53.84Z"/>
    <path class="cls-9" d="m638.8,224.31l-5.88,54.41c2.09-1.52,4.26-2.95,6.5-4.26l6-55.46-58.72-6.35c-.97.69-1.94,1.39-2.89,2.11-.05.04-1.53,1.16-4.18,3.16l59.19,6.4Z"/>
  </g>
  <g class="cls-11">
    <path class="cls-10" d="m438.49,526.61c-.21-.73-.52-1.36-.94-1.98-.42-.63-.83-1.04-1.36-1.46s-1.15-.73-1.88-.94c-.73-.21-1.46-.31-2.29-.31-1.46,0-2.82.42-3.96,1.15-1.15.73-2.09,1.77-2.71,3.23-.63,1.46-.94,3.13-.94,5.21s.31,3.86.94,5.21c.63,1.46,1.56,2.5,2.71,3.23,1.15.73,2.5,1.15,4.07,1.15,1.36,0,2.61-.31,3.65-.83,1.04-.52,1.77-1.25,2.4-2.29.52-.94.83-2.19.83-3.44l1.15.21h-7.4v-3.86h11.05v3.23c0,2.29-.52,4.38-1.46,6.05-1.04,1.67-2.4,3.02-4.07,3.96-1.77.94-3.75,1.36-6.05,1.36-2.5,0-4.69-.52-6.67-1.67-1.88-1.15-3.34-2.71-4.48-4.8-1.04-2.09-1.56-4.59-1.56-7.51,0-2.19.31-4.17.94-5.94s1.46-3.23,2.61-4.38c1.15-1.25,2.5-2.19,3.96-2.82,1.56-.63,3.13-.94,5-.94,1.46,0,2.92.21,4.27.63,1.36.42,2.5,1.04,3.44,1.88,1.04.83,1.88,1.77,2.5,2.92s1.04,2.29,1.25,3.65h-5v.1h0Zm18.04,18.98c-1.98,0-3.75-.42-5.21-1.36s-2.61-2.09-3.44-3.65-1.25-3.44-1.25-5.53.42-3.96,1.25-5.53c.83-1.56,1.98-2.82,3.44-3.75,1.46-.83,3.23-1.36,5.21-1.36s3.75.42,5.21,1.36c1.46.83,2.61,2.09,3.44,3.75.83,1.56,1.25,3.44,1.25,5.53s-.42,3.96-1.25,5.53c-.83,1.56-1.98,2.82-3.44,3.65-1.46.94-3.23,1.36-5.21,1.36Zm0-3.86c1.04,0,1.98-.31,2.71-.94.73-.63,1.25-1.46,1.67-2.4.31-1.04.52-2.19.52-3.34,0-1.25-.21-2.4-.52-3.44s-.94-1.88-1.67-2.4c-.73-.63-1.67-.94-2.71-.94-1.15,0-2.09.31-2.82.94-.73.63-1.25,1.46-1.67,2.4-.31,1.04-.52,2.19-.52,3.44s.21,2.4.52,3.34c.31,1.04.94,1.77,1.67,2.4.83.63,1.77.94,2.82.94Zm30.76-17l-7.3,20.44h-5.32l-7.3-20.44h5.11l4.69,15.22h.21l4.69-15.22h5.21Zm10.95,20.85c-2.09,0-3.86-.42-5.32-1.25s-2.61-2.09-3.44-3.65-1.25-3.44-1.25-5.63.42-3.96,1.25-5.53c.83-1.56,1.98-2.82,3.34-3.75,1.46-.94,3.13-1.36,5.11-1.36,1.25,0,2.5.21,3.55.63,1.15.42,2.09,1.04,3.02,1.88.83.83,1.56,1.88,2.09,3.23.52,1.25.73,2.82.73,4.59v1.46h-16.79v-3.23h12.2c0-.94-.21-1.77-.63-2.5s-.94-1.25-1.67-1.67c-.73-.42-1.46-.63-2.4-.63s-1.88.21-2.61.73-1.36,1.04-1.77,1.88c-.42.73-.63,1.56-.63,2.5v2.82c0,1.15.21,2.19.63,3.02.42.83,1.04,1.46,1.88,1.98.83.42,1.67.63,2.71.63.73,0,1.36-.1,1.88-.31s1.04-.52,1.46-.94.73-.83.94-1.46l4.48.52c-.31,1.15-.83,2.19-1.67,3.13-.83.83-1.77,1.56-3.02,2.09-1.04.63-2.5.83-4.07.83Zm12.41-.42v-20.44h4.69v3.44h.21c.42-1.15,1.04-2.09,1.88-2.71.94-.63,1.98-.94,3.13-.94h.94c.31,0,.63,0,.83.1v4.48c-.21-.1-.52-.1-.94-.21-.42-.1-.83-.1-1.25-.1-.83,0-1.67.21-2.4.63-.73.42-1.25.94-1.67,1.56-.42.63-.63,1.46-.63,2.29v11.89h-4.8Zm18.98-11.99v11.99h-4.8v-20.44h4.59v3.44h.21c.52-1.15,1.25-2.09,2.29-2.71s2.29-1.04,3.86-1.04c1.46,0,2.61.31,3.65.94,1.04.63,1.88,1.46,2.5,2.61.63,1.15.83,2.5.83,4.17v13.03h-4.8v-12.3c0-1.36-.31-2.4-1.04-3.23-.73-.73-1.67-1.15-2.92-1.15-.83,0-1.56.21-2.29.52-.63.31-1.15.94-1.56,1.56-.31.73-.52,1.56-.52,2.61Z"/>
    <path class="cls-8" d="m478.95,358.21l-16.47-21.69,8.13-6.15c1.67-1.25,3.34-1.98,4.9-2.29,1.56-.21,3.13,0,4.48.63,1.46.63,2.61,1.67,3.65,3.02s1.67,2.82,1.98,4.38c.21,1.56,0,3.02-.63,4.48s-1.88,2.82-3.55,4.17l-5.42,4.07-2.4-3.23,4.9-3.65c.94-.73,1.67-1.56,1.98-2.29.42-.83.52-1.67.31-2.4-.1-.83-.52-1.56-1.15-2.4-.63-.73-1.25-1.36-1.98-1.67-.73-.31-1.56-.42-2.4-.31s-1.77.63-2.82,1.36l-3.65,2.71,13.97,18.35-3.86,2.92h0Z"/>
    <path class="cls-8" d="m501.99,341.32c-1.04.83-2.09,1.25-3.23,1.56-1.15.21-2.19.21-3.23-.21-1.04-.31-1.98-1.04-2.71-2.19-.73-.94-1.15-1.77-1.25-2.71-.1-.83,0-1.67.31-2.5s.73-1.56,1.36-2.29c.63-.73,1.25-1.46,1.98-2.19.83-.83,1.56-1.46,2.09-1.98s.83-.94,1.04-1.36c.1-.42.1-.73-.21-1.15v-.1c-.63-.83-1.36-1.25-2.09-1.36-.83-.1-1.67.21-2.5.94-.94.73-1.56,1.46-1.77,2.29-.21.83-.21,1.56,0,2.29l-3.96,2.19c-.52-1.25-.63-2.4-.52-3.55s.52-2.29,1.25-3.34,1.56-1.98,2.71-2.82c.83-.63,1.67-1.15,2.5-1.46.94-.42,1.88-.63,2.82-.73.94-.1,1.88.1,2.82.52.94.42,1.77,1.15,2.61,2.29l8.24,10.84-3.65,2.82-1.67-2.19-.1.1c.1.63.1,1.25,0,1.98-.1.73-.42,1.46-.83,2.09-.52.83-1.15,1.46-1.98,2.19h0Zm-1.15-3.55c.73-.63,1.36-1.25,1.67-1.98.31-.73.42-1.46.42-2.19-.1-.73-.31-1.36-.83-1.98l-1.46-1.88c0,.21-.21.42-.42.73-.21.31-.52.63-.83.94l-.94.94-.83.83c-.52.52-.94,1.04-1.25,1.56-.31.52-.52,1.04-.52,1.56s.1,1.04.52,1.46c.52.73,1.15,1.04,1.98,1.04.83-.21,1.67-.52,2.5-1.04h0Z"/>
    <path class="cls-8" d="m520.86,326.93c-1.67,1.25-3.34,1.98-5,2.09-1.67.21-3.34-.1-4.9-.94s-3.02-1.98-4.27-3.65c-1.25-1.67-2.09-3.34-2.4-5.11-.31-1.77-.21-3.44.42-5,.63-1.56,1.77-3.02,3.34-4.17,1.36-1.04,2.71-1.67,4.07-1.98,1.36-.31,2.71-.21,3.96.21,1.25.42,2.4,1.15,3.34,2.29l-3.65,2.82c-.73-.63-1.56-1.04-2.5-1.15s-1.88.21-2.82.94c-.83.63-1.36,1.36-1.56,2.19-.31.83-.31,1.77,0,2.82s.83,2.09,1.67,3.23,1.77,1.98,2.61,2.5,1.88.83,2.71.83c.94,0,1.77-.31,2.61-.94.52-.42.94-.94,1.25-1.46s.42-1.15.42-1.77-.21-1.25-.52-1.98l3.65-2.82c.83,1.25,1.25,2.5,1.25,3.86.1,1.36-.21,2.61-.83,3.86-.52,1.15-1.46,2.29-2.82,3.34h0Z"/>
    <path class="cls-8" d="m530.04,319.42l-16.37-21.69,3.86-2.92,16.47,21.69-3.96,2.92Zm-.31-7.72l-3.55-4.59.63-.42.83-10.95,4.48-3.44-1.15,13.45-.83.63-.42,5.32h0Zm10.53,0l-10.95-3.34.52-4.69,14.91,4.59-4.48,3.44h0Z"/>
    <path class="cls-8" d="m551,304.1c-1.04.83-2.09,1.25-3.23,1.56-1.15.21-2.19.21-3.23-.21-1.04-.42-1.98-1.04-2.71-2.19-.73-.94-1.15-1.77-1.25-2.71-.1-.83,0-1.67.31-2.5s.73-1.56,1.36-2.29,1.25-1.46,1.98-2.19c.83-.83,1.56-1.46,2.09-1.98s.83-.94,1.04-1.36c.1-.42.1-.73-.21-1.15v-.1c-.63-.83-1.36-1.25-2.09-1.36-.83-.1-1.67.21-2.5.94-.94.73-1.56,1.46-1.77,2.29-.21.83-.21,1.56,0,2.29l-3.96,2.19c-.52-1.25-.63-2.4-.52-3.55s.52-2.29,1.25-3.34,1.56-1.98,2.71-2.82c.83-.63,1.67-1.04,2.5-1.46.94-.42,1.88-.63,2.82-.73s1.88.1,2.82.52,1.77,1.15,2.61,2.29l8.24,10.84-3.65,2.82-1.67-2.19-.1.1c.1.63.1,1.25,0,1.98-.1.73-.42,1.46-.83,2.09-.52.83-1.15,1.56-1.98,2.19h0Zm-1.15-3.55c.73-.63,1.36-1.25,1.67-1.98.31-.73.42-1.46.42-2.19-.1-.73-.31-1.36-.83-1.98l-1.46-1.88c0,.21-.21.42-.42.73-.21.31-.52.63-.83.94s-.63.63-.94.94c-.31.31-.63.63-.83.83-.52.52-.94,1.04-1.25,1.56s-.52,1.04-.52,1.56.1,1.04.52,1.46c.52.73,1.15,1.04,1.98,1.04.94-.1,1.67-.42,2.5-1.04h0Z"/>
    <path class="cls-8" d="m574.46,295.86c-1.36,1.04-2.71,1.77-3.96,2.09-1.25.42-2.4.52-3.55.31-1.04-.21-1.98-.52-2.82-1.15l2.82-3.44c.42.21.83.31,1.36.42s1.15,0,1.77-.1c.63-.21,1.36-.52,2.19-1.15,1.04-.83,1.77-1.77,2.09-2.82s0-2.19-.94-3.44l-2.29-3.13-.21.1c.1.52.1,1.15.1,1.88-.1.73-.31,1.46-.73,2.19s-1.04,1.46-1.98,2.19c-1.25.94-2.61,1.56-4.07,1.67-1.46.21-2.92-.1-4.38-.83-1.46-.73-2.92-1.98-4.27-3.75s-2.19-3.55-2.5-5.21c-.31-1.67-.21-3.23.31-4.59s1.46-2.61,2.71-3.55c.94-.73,1.88-1.15,2.71-1.36.83-.1,1.67-.1,2.4,0,.73.21,1.36.42,1.77.63l.21-.21-2.09-2.71,3.75-2.82,12.51,16.47c1.04,1.36,1.56,2.82,1.67,4.17,0,1.46-.31,2.82-1.15,4.07-.83,1.77-1.98,2.92-3.44,4.07h0Zm-7.3-9.7c.83-.63,1.36-1.36,1.67-2.19.31-.83.31-1.77,0-2.71s-.83-1.98-1.56-3.02-1.56-1.77-2.5-2.4c-.83-.52-1.77-.83-2.61-.83-.94,0-1.77.31-2.61.94s-1.36,1.36-1.67,2.29c-.21.83-.21,1.77.1,2.82.31.94.83,1.98,1.56,2.92.73,1.04,1.56,1.77,2.4,2.29s1.77.73,2.61.73,1.77-.21,2.61-.83h0Z"/>
    <path class="cls-8" d="m588.01,275.95c-1.67,1.25-3.34,1.98-5,2.19-1.67.21-3.34-.1-4.9-.83-1.56-.73-3.02-1.98-4.27-3.75-1.25-1.67-2.09-3.34-2.4-5.11-.31-1.77-.21-3.44.42-5,.63-1.56,1.67-2.92,3.23-4.17,1.04-.73,2.09-1.36,3.23-1.67,1.15-.31,2.29-.42,3.55-.31,1.15.1,2.4.63,3.55,1.36,1.15.73,2.29,1.77,3.44,3.23l.94,1.15-13.35,10.11-1.98-2.61,9.59-7.3c-.52-.73-1.25-1.25-1.98-1.56s-1.56-.42-2.29-.42c-.83.1-1.56.42-2.29.94-.83.63-1.36,1.36-1.67,2.09-.31.83-.42,1.67-.21,2.5.1.83.52,1.67,1.04,2.4l1.67,2.29c.73.94,1.46,1.67,2.4,1.98.83.42,1.77.52,2.61.42.94-.1,1.77-.52,2.61-1.15.52-.42,1.04-.83,1.36-1.36s.52-1.04.63-1.56.1-1.15-.1-1.77l3.86-2.29c.52,1.15.73,2.29.63,3.44-.1,1.15-.52,2.29-1.15,3.44-.94,1.36-1.88,2.4-3.13,3.34h0Z"/>
    <path class="cls-8" d="m360.08,267.5l16.27-21.79,8.13,6.15c1.67,1.25,2.82,2.61,3.55,4.07.63,1.46.94,3.02.63,4.48-.21,1.56-.83,3.02-1.88,4.38-1.04,1.36-2.29,2.4-3.65,3.02-1.36.63-2.92.83-4.48.63-1.56-.21-3.23-.94-4.9-2.29l-5.42-4.07,2.4-3.23,4.9,3.65c.94.73,1.88,1.15,2.82,1.25.83.1,1.67,0,2.4-.42.73-.31,1.36-.94,1.98-1.67s.94-1.56,1.04-2.4,0-1.67-.42-2.4c-.42-.83-1.04-1.56-2.09-2.29l-3.65-2.71-13.87,18.46-3.75-2.82h0Z"/>
    <path class="cls-8" d="m399.29,262.91l-16.27,21.79-3.86-2.92,16.27-21.79,3.86,2.92Z"/>
    <path class="cls-8" d="m391.47,291.48c-1.04-.73-1.88-1.67-2.4-2.61s-.83-1.98-.73-3.13c.1-1.04.52-2.19,1.25-3.23.73-.94,1.46-1.56,2.19-1.88.83-.31,1.56-.52,2.5-.42.83.1,1.77.31,2.61.63.83.42,1.77.83,2.61,1.36,1.04.63,1.88,1.15,2.5,1.46.63.42,1.15.52,1.56.63.42,0,.73-.1,1.04-.52v-.1c.63-.83.83-1.56.63-2.4-.1-.83-.63-1.56-1.56-2.19-.94-.73-1.88-1.04-2.71-1.04s-1.56.21-2.19.63l-3.23-3.23c1.04-.83,2.09-1.25,3.23-1.46,1.15-.21,2.29-.1,3.55.31,1.25.42,2.4.94,3.55,1.88.83.63,1.46,1.25,2.19,2.09.63.73,1.15,1.56,1.46,2.5s.42,1.88.31,2.92-.63,2.09-1.46,3.13l-8.13,10.95-3.75-2.82,1.67-2.29-.1-.1c-.52.31-1.25.42-1.98.52-.73.1-1.46,0-2.29-.21-.63-.31-1.46-.73-2.29-1.36h0Zm3.02-2.09c.73.63,1.56.94,2.4,1.04s1.56,0,2.19-.21c.73-.31,1.25-.73,1.67-1.36l1.46-1.88c-.21,0-.52-.1-.83-.21s-.73-.31-1.15-.52-.83-.42-1.15-.63c-.42-.21-.73-.42-1.04-.52-.63-.31-1.25-.63-1.88-.73-.63-.21-1.15-.21-1.67-.1s-.94.42-1.36.94c-.52.73-.63,1.46-.42,2.19.52.63,1.04,1.36,1.77,1.98Z"/>
    <path class="cls-8" d="m415.13,293.77l-7.19,9.59-3.86-2.92,12.2-16.37,3.65,2.71-2.09,2.82.21.1c1.04-.63,2.19-.94,3.44-.83,1.25.1,2.4.63,3.65,1.46,1.15.83,1.98,1.77,2.4,2.92.52,1.15.63,2.29.42,3.55-.21,1.25-.83,2.5-1.77,3.86l-7.82,10.43-3.86-2.92,7.3-9.8c.83-1.04,1.15-2.19,1.04-3.23s-.63-1.98-1.67-2.71c-.63-.52-1.36-.83-2.09-.94s-1.46,0-2.19.31c-.52.63-1.15,1.15-1.77,1.98h0Z"/>
    <path class="cls-8" d="m733.57,250.4l-7.82-4.9,14.49-23.04,7.92,5c2.29,1.46,3.96,3.13,5,5.11,1.04,1.98,1.46,4.07,1.25,6.36s-1.04,4.59-2.61,6.99c-1.56,2.4-3.23,4.17-5.21,5.32s-4.07,1.67-6.36,1.56c-2.09-.1-4.38-.94-6.67-2.4Zm-1.36-5.84l3.44,2.19c1.56,1.04,3.13,1.56,4.59,1.67s2.82-.31,4.07-1.15,2.5-2.09,3.55-3.86c1.15-1.77,1.77-3.44,1.98-4.9.21-1.46-.1-2.92-.73-4.17-.73-1.25-1.77-2.4-3.34-3.34l-3.55-2.19-10.01,15.74h0Z"/>
    <path class="cls-8" d="m752.65,265.62c-1.46-1.46-2.5-2.92-2.92-4.59-.52-1.67-.52-3.34,0-5,.52-1.67,1.46-3.34,3.02-4.8,1.46-1.56,3.02-2.61,4.69-3.13,1.67-.63,3.34-.73,5-.42,1.67.31,3.23,1.25,4.59,2.5.94.83,1.67,1.88,2.19,2.92s.83,2.19.83,3.44-.21,2.4-.73,3.75c-.52,1.25-1.46,2.61-2.61,3.86l-1.04,1.04-12.1-11.57,2.19-2.29,8.76,8.34c.63-.63,1.04-1.36,1.25-2.19.21-.83.21-1.56,0-2.4s-.63-1.46-1.36-2.09-1.46-1.15-2.4-1.25c-.83-.21-1.67-.1-2.5.1-.83.31-1.56.73-2.19,1.36l-1.98,2.09c-.83.83-1.36,1.77-1.67,2.61s-.31,1.77,0,2.71c.21.83.73,1.67,1.56,2.4.52.52,1.04.83,1.56,1.15.52.21,1.15.42,1.67.42s1.15-.1,1.67-.42l2.92,3.44c-1.04.63-2.09,1.04-3.34,1.15-1.15.1-2.4-.1-3.65-.63-1.04-.52-2.29-1.36-3.44-2.5h0Z"/>
    <path class="cls-8" d="m754.63,277.61l23.04-16.06,2.71,3.86-2.82,1.98.21.21c.52-.1,1.15-.1,1.88,0,.73,0,1.46.31,2.19.63.73.42,1.46,1.04,2.19,2.09.94,1.25,1.36,2.71,1.46,4.17.1,1.46-.31,3.02-1.15,4.48-.83,1.46-2.19,2.92-4.07,4.17-1.88,1.25-3.65,2.09-5.32,2.4-1.67.31-3.23.21-4.69-.42-1.36-.52-2.61-1.46-3.44-2.82-.63-.94-1.04-1.88-1.15-2.71-.1-.83-.1-1.67.1-2.29.21-.73.42-1.25.63-1.77l-.1-.21-8.86,6.26-2.82-3.96h0Zm17.31-6.36c-1.04.73-1.88,1.56-2.5,2.4-.63.83-.94,1.77-.94,2.71s.21,1.77.83,2.61,1.36,1.46,2.19,1.67,1.88.21,2.82,0c1.04-.31,2.09-.73,3.13-1.46,1.04-.73,1.88-1.56,2.5-2.4.63-.83.94-1.77.94-2.61,0-.94-.21-1.77-.83-2.71-.63-.83-1.36-1.36-2.19-1.67-.83-.31-1.77-.31-2.82,0-.94.21-1.98.73-3.13,1.46h0Z"/>
    <path class="cls-8" d="m799.26,283.66l-24.4,12.1-2.09-4.27,24.4-12.1,2.09,4.27Z"/>
    <path class="cls-8" d="m778.93,307.12c-.63-1.88-.73-3.65-.31-5.32s1.15-3.13,2.4-4.38c1.25-1.25,2.92-2.19,4.9-2.82,1.98-.63,3.86-.83,5.63-.52s3.23.94,4.59,2.09c1.25,1.15,2.19,2.61,2.82,4.48s.73,3.65.31,5.32-1.25,3.13-2.5,4.38-2.92,2.19-4.9,2.82-3.86.83-5.63.52c-1.77-.31-3.23-.94-4.59-2.09-1.25-1.04-2.19-2.61-2.71-4.48h0Zm3.65-1.15c.31,1.04.94,1.77,1.67,2.29.83.52,1.77.73,2.82.83s2.19-.1,3.34-.52,2.19-.94,3.02-1.56c.83-.63,1.46-1.46,1.77-2.29.31-.83.31-1.88,0-2.82-.31-1.04-.94-1.88-1.67-2.29-.83-.52-1.77-.73-2.82-.83-1.04,0-2.19.1-3.44.52-1.15.42-2.19.94-3.02,1.56-.83.63-1.46,1.46-1.77,2.29s-.31,1.77.1,2.82h0Z"/>
    <path class="cls-8" d="m775.17,321.41c-.1-.63-.1-1.25-.1-1.77s.1-1.04.21-1.36l3.86.63c-.1.73-.1,1.36,0,1.88s.31,1.04.73,1.36c.42.42.94.63,1.77.83l1.15.31,19.71-10.11.63,5-14.7,6.67v.21l15.85,2.61.73,5.11-23.77-5.11c-1.15-.21-2.09-.63-2.92-1.15s-1.56-1.25-2.09-2.09c-.52-.73-.83-1.77-1.04-3.02h0Z"/>
    <path class="cls-8" d="m606.36,419.63l5,3.44-4.48,20.85.21.21,17.83-11.68,5,3.44-15.43,22.42-3.86-2.71,10.64-15.43-.21-.1-16.68,11.05-2.92-1.98,4.38-19.6-.21-.1-10.64,15.43-3.86-2.71,15.22-22.52h0Z"/>
    <path class="cls-8" d="m629.61,465.82c-1.88-.73-3.34-1.77-4.27-3.13-1.04-1.36-1.56-2.92-1.77-4.69-.1-1.77.21-3.65.94-5.53.83-1.98,1.88-3.55,3.23-4.69,1.36-1.15,2.82-1.88,4.48-2.19,1.67-.31,3.44,0,5.32.73,1.88.73,3.34,1.77,4.27,3.13,1.04,1.36,1.56,2.92,1.77,4.69.1,1.77-.21,3.65-.94,5.63-.83,1.98-1.88,3.55-3.23,4.69-1.36,1.15-2.82,1.88-4.48,2.09-1.67.21-3.44,0-5.32-.73h0Zm1.46-3.55c1.04.42,1.98.42,2.82.21.94-.31,1.67-.83,2.4-1.67s1.25-1.77,1.77-2.92.73-2.29.73-3.34-.1-1.98-.63-2.82-1.15-1.46-2.19-1.88c-1.04-.42-1.98-.52-2.92-.21-.94.31-1.67.83-2.4,1.67s-1.25,1.77-1.77,2.92c-.42,1.15-.73,2.29-.73,3.34s.21,1.98.63,2.82c.63.83,1.36,1.46,2.29,1.88h0Z"/>
    <path class="cls-8" d="m652.24,459.77l-1.88,11.78-4.8-.73,3.23-20.12,4.59.73-.52,3.44h.21c.63-1.04,1.56-1.88,2.61-2.29,1.15-.52,2.4-.63,3.96-.42,1.36.21,2.61.73,3.55,1.46s1.56,1.77,1.98,2.92c.42,1.25.42,2.61.21,4.27l-2.09,12.82-4.8-.73,1.98-12.1c.21-1.36,0-2.5-.52-3.34s-1.46-1.36-2.71-1.56c-.83-.1-1.56-.1-2.29.21-.73.21-1.25.73-1.77,1.36-.42.52-.73,1.25-.94,2.29h0Z"/>
    <path class="cls-8" d="m669.44,473.74l.73-20.33,4.8.21-.73,20.33-4.8-.21Zm3.23-23.15c-.73,0-1.46-.31-1.98-.83s-.83-1.15-.73-1.88c0-.73.31-1.36.94-1.88.52-.52,1.25-.73,1.98-.73s1.46.31,1.98.83.73,1.15.73,1.88-.31,1.36-.83,1.77c-.63.63-1.25.83-2.09.83h0Z"/>
    <path class="cls-8" d="m688.73,453.1l.21,3.75-11.68.83-.21-3.75,11.68-.83Zm-9.18-4.38l4.8-.31,1.25,19.08c0,.63.21,1.15.42,1.46.21.31.52.52.83.63s.73.1,1.15.1c.31,0,.63-.1.83-.1.21-.1.42-.1.52-.21l1.04,3.65c-.21.1-.63.21-1.04.42-.42.1-1.04.21-1.67.31-1.25.1-2.29,0-3.34-.31-.94-.31-1.77-.94-2.4-1.67-.63-.83-.94-1.88-1.04-3.13l-1.36-19.92h0Z"/>
    <path class="cls-8" d="m703.75,471.24c-1.98.42-3.75.42-5.32-.1-1.67-.52-3.02-1.46-4.17-2.82-1.15-1.36-1.98-3.02-2.4-5.11s-.52-3.96-.1-5.63c.42-1.77,1.25-3.13,2.5-4.38,1.25-1.15,2.82-1.98,4.8-2.4,1.98-.42,3.75-.42,5.32.1,1.67.52,3.02,1.46,4.17,2.82,1.15,1.36,1.98,3.02,2.4,5.11.52,2.09.52,3.96.1,5.63-.42,1.67-1.25,3.13-2.5,4.38-1.25,1.15-2.82,1.98-4.8,2.4Zm-.83-3.75c1.04-.21,1.88-.73,2.4-1.46s.94-1.67,1.04-2.71,0-2.19-.21-3.44c-.31-1.25-.73-2.29-1.25-3.23-.63-.94-1.25-1.56-2.09-1.98s-1.77-.52-2.82-.31c-1.04.21-1.88.73-2.5,1.46s-.94,1.67-1.04,2.71,0,2.19.21,3.44c.31,1.25.73,2.29,1.25,3.13.52.94,1.25,1.56,2.09,1.98.94.63,1.88.63,2.92.42h0Z"/>
    <path class="cls-8" d="m718.45,466.76l-7.19-19.08,4.38-1.67,1.25,3.13.21-.1c-.1-1.25.21-2.29.83-3.23.63-.94,1.46-1.56,2.61-1.98.21-.1.52-.21.83-.31s.63-.21.83-.21l1.56,4.17c-.21,0-.52.1-.94.21-.42.1-.83.21-1.25.42-.83.31-1.46.73-1.98,1.36s-.83,1.25-.94,2.09c-.1.73-.1,1.56.21,2.4l4.27,11.16-4.69,1.67h0Z"/>
    <path class="cls-8" d="m247.89,440.79l.94,22.52.31.1,12.72-18.66,5.21,1.46-16.68,23.46-5.84-1.67-1.67-28.78,5,1.56h0Z"/>
    <path class="cls-8" d="m271.97,474.05c-2.09-.21-3.75-.73-5.11-1.77-1.36-.94-2.4-2.29-3.13-3.96-.63-1.67-.83-3.55-.73-5.63.21-2.09.73-3.86,1.67-5.42s2.19-2.61,3.65-3.44c1.56-.73,3.23-1.04,5.21-.83,1.25.1,2.4.42,3.55.94,1.04.52,1.98,1.25,2.82,2.09.83.94,1.36,2.09,1.77,3.34.42,1.36.52,2.92.31,4.69l-.1,1.46-16.68-1.46.31-3.23,12.1,1.04c.1-.94-.1-1.77-.42-2.5s-.83-1.36-1.46-1.88-1.46-.73-2.4-.83c-.94-.1-1.88.1-2.61.52-.83.42-1.46.94-1.88,1.67-.52.73-.73,1.56-.83,2.4l-.21,2.82c-.1,1.15,0,2.19.42,3.13.31.83.94,1.56,1.67,2.09s1.67.83,2.71.94c.73.1,1.36,0,1.88-.1.63-.1,1.15-.42,1.56-.73s.83-.83,1.04-1.36l4.38.94c-.42,1.15-1.04,2.09-1.88,2.92s-1.98,1.36-3.23,1.77c-1.36.42-2.71.52-4.38.42Z"/>
    <path class="cls-8" d="m287.09,473.95l-1.46-20.33,4.69-.31.21,3.44h.21c.31-1.25.83-2.19,1.67-2.82.83-.73,1.88-1.04,3.02-1.15h1.77l.31,4.38c-.21-.1-.52-.1-.94-.1h-1.25c-.83.1-1.67.31-2.29.73s-1.15.94-1.56,1.67c-.31.73-.52,1.46-.42,2.29l.83,11.99-4.8.21h0Z"/>
    <path class="cls-8" d="m301.07,449.13c-.73.1-1.46,0-2.09-.42s-1.04-.94-1.15-1.67c-.1-.73.1-1.36.52-1.98.42-.63,1.04-.94,1.77-1.04s1.46,0,2.09.42.94.94,1.15,1.67c.1.73-.1,1.36-.52,1.98-.42.52-1.04.94-1.77,1.04h0Zm1.46,23.36l-3.34-20.12,4.8-.83,3.34,20.12-4.8.83h0Z"/>
    <path class="cls-8" d="m317.33,448.2l1.04,3.55-11.57,3.23-1.04-3.55,11.57-3.23h0Zm-3.23,22l-5.94-21.48c-.42-1.36-.42-2.5-.1-3.55s.83-1.88,1.67-2.61c.83-.73,1.77-1.25,2.92-1.56.83-.21,1.56-.31,2.19-.42.63,0,1.15-.1,1.46,0l.1,3.86h-.83c-.31,0-.63.1-1.04.21-.83.21-1.36.63-1.67,1.15-.21.52-.21,1.15,0,1.88l5.94,21.17-4.69,1.36h0Z"/>
    <path class="cls-8" d="m335.16,471.13c-.63.31-1.15.52-1.67.63-.52.21-.94.21-1.36.31l-.63-3.86c.73-.1,1.36-.31,1.77-.63.52-.21.83-.63,1.04-1.15s.31-1.15.21-1.98l-.1-1.15-15.95-15.12,4.59-2.29,11.16,11.68.21-.1-2.71-15.85,4.59-2.29,2.92,24.09c.1,1.15.1,2.19-.1,3.13s-.63,1.88-1.25,2.61c-.63.83-1.56,1.46-2.71,1.98h0Z"/>
    <path class="cls-8" d="m162.81,297.84l-1.25,4.8c-.83-.1-1.56,0-2.29.21s-1.36.52-1.88.94-1.04.94-1.46,1.67c-.42.63-.73,1.36-.94,2.19-.31,1.46-.31,2.82.1,4.07.42,1.25,1.25,2.4,2.5,3.34,1.25.94,2.82,1.67,4.8,2.19,1.98.52,3.75.63,5.32.31,1.56-.31,2.82-.94,3.75-1.88.94-.94,1.67-2.09,1.98-3.55.21-.83.31-1.56.21-2.29,0-.73-.21-1.46-.42-2.09-.31-.63-.63-1.25-1.15-1.77s-1.15-.94-1.88-1.36l1.25-4.8c1.25.52,2.29,1.15,3.23,2.09s1.77,1.88,2.29,3.02c.63,1.15.94,2.5,1.15,3.86.1,1.36,0,2.92-.31,4.48-.63,2.29-1.67,4.27-3.13,5.84-1.56,1.56-3.44,2.61-5.73,3.13s-4.9.42-7.72-.21c-2.82-.73-5.11-1.88-6.88-3.44-1.77-1.56-2.92-3.34-3.55-5.42-.63-2.09-.63-4.27-.1-6.57.31-1.46.94-2.82,1.67-3.96.73-1.15,1.56-2.09,2.61-2.92s2.19-1.36,3.55-1.67c1.36-.31,2.71-.42,4.27-.21h0Z"/>
    <path class="cls-8" d="m181.68,300.24l-18.46-8.65,1.98-4.17,3.13,1.46.1-.21c-.94-.83-1.46-1.77-1.67-2.92-.21-1.15-.1-2.19.42-3.23.1-.21.21-.52.42-.83s.31-.52.42-.73l3.96,1.88c-.1.1-.31.42-.63.83-.21.42-.42.73-.63,1.15-.42.83-.52,1.56-.52,2.4s.31,1.46.73,2.19c.42.63,1.04,1.15,1.88,1.56l10.84,5.11-1.98,4.17h0Z"/>
    <path class="cls-8" d="m192.42,281.47c-1.15,1.67-2.5,2.92-4.07,3.65s-3.23,1.04-4.9.73c-1.77-.21-3.55-.94-5.21-2.19-1.77-1.15-3.02-2.5-3.86-4.07s-1.25-3.23-1.15-4.9c.1-1.67.63-3.34,1.77-4.9.73-1.04,1.56-1.88,2.5-2.61s2.09-1.15,3.23-1.36c1.15-.21,2.4-.21,3.75.1,1.36.31,2.71.94,4.27,1.98l1.25.83-9.49,13.76-2.71-1.88,6.88-10.01c-.73-.52-1.56-.83-2.4-.94s-1.56,0-2.29.42c-.73.31-1.36.94-1.88,1.67-.52.83-.83,1.67-.83,2.5s.21,1.67.52,2.5c.42.73.94,1.46,1.67,1.98l2.29,1.56c.94.63,1.98,1.04,2.92,1.15.94.1,1.77,0,2.61-.42s1.46-1.04,2.09-1.88c.42-.63.63-1.15.83-1.77.1-.63.21-1.15.1-1.67-.1-.52-.31-1.04-.63-1.56l2.92-3.44c.83.94,1.36,1.98,1.67,3.13s.31,2.4,0,3.65-.94,2.61-1.88,3.96h0Z"/>
    <path class="cls-8" d="m202.95,268.44c-.94.94-1.88,1.56-2.92,1.98s-2.09.52-3.23.21c-1.04-.21-2.09-.83-3.02-1.77-.83-.83-1.36-1.67-1.56-2.5s-.21-1.67,0-2.5.52-1.67,1.04-2.5,1.04-1.56,1.67-2.4c.73-.94,1.36-1.67,1.88-2.29.42-.63.73-1.04.83-1.46s0-.73-.31-1.04l-.1-.1c-.73-.73-1.46-1.04-2.29-1.04s-1.56.42-2.4,1.25c-.83.83-1.36,1.67-1.46,2.5-.1.83,0,1.56.31,2.29l-3.65,2.71c-.63-1.15-.94-2.29-.94-3.44s.21-2.29.83-3.44c.52-1.15,1.36-2.19,2.29-3.23.73-.73,1.46-1.25,2.29-1.88.83-.52,1.77-.83,2.71-1.04.94-.21,1.88-.1,2.92.1,1.04.21,1.98.94,2.92,1.88l9.59,9.7-3.34,3.23-1.98-1.98-.1.1c.21.63.31,1.25.21,1.98,0,.73-.21,1.46-.52,2.19-.31,1.04-.83,1.77-1.67,2.5h0Zm-1.56-3.34c.73-.63,1.15-1.36,1.36-2.19.21-.73.21-1.56.1-2.29-.21-.73-.52-1.36-1.04-1.88l-1.67-1.67c0,.21-.1.42-.31.83-.21.31-.42.63-.63,1.04-.21.42-.52.73-.83,1.04s-.52.63-.73.94c-.42.63-.83,1.15-1.04,1.67s-.31,1.04-.31,1.56.31.94.73,1.46c.63.63,1.36.83,2.09.73.83-.1,1.56-.52,2.29-1.25h0Z"/>
    <path class="cls-8" d="m198.67,237.89l3.86-2.82,11.47,15.33c.42.52.73.83,1.15,1.04.42.1.73.21,1.04.1s.63-.21.94-.52c.21-.21.42-.31.63-.52.21-.21.31-.31.42-.42l2.92,2.5c-.1.21-.42.52-.73.94-.31.31-.73.73-1.25,1.15-.94.73-1.88,1.25-2.92,1.46-1.04.21-1.98.21-2.92-.1-.94-.31-1.77-1.04-2.61-2.09l-11.99-16.06h0Zm10.01-1.36l2.19,3.02-9.38,6.99-2.19-3.02,9.38-6.99Z"/>
    <path class="cls-8" d="m230.06,247.9c-1.77.94-3.55,1.46-5.21,1.46s-3.34-.52-4.8-1.56c-1.46-.94-2.71-2.4-3.75-4.27-1.04-1.88-1.56-3.65-1.56-5.42-.1-1.77.31-3.44,1.15-4.9.83-1.46,2.09-2.71,3.86-3.65,1.15-.63,2.29-1.04,3.44-1.15,1.15-.21,2.29-.1,3.55.21,1.15.31,2.29.94,3.34,1.88,1.04.94,1.98,2.09,2.92,3.65l.73,1.25-14.7,8.03-1.56-2.82,10.64-5.84c-.42-.83-1.04-1.46-1.67-1.88-.73-.42-1.46-.63-2.29-.73-.83,0-1.67.21-2.4.63-.83.52-1.46,1.04-1.88,1.88-.42.73-.63,1.56-.63,2.5,0,.83.21,1.67.63,2.5l1.36,2.5c.52,1.04,1.25,1.88,2.09,2.4s1.67.83,2.5.83c.94,0,1.77-.21,2.71-.73.63-.31,1.15-.73,1.56-1.15s.73-.94.83-1.46c.21-.52.21-1.15.1-1.77l4.17-1.67c.31,1.15.31,2.29.1,3.44-.31,1.15-.83,2.19-1.67,3.23-.94,1.04-2.09,1.88-3.55,2.61h0Z"/>
    <path class="cls-10" d="m436.09,143.15c-.1-1.15-.63-2.09-1.56-2.71s-2.09-.94-3.55-.94c-1.04,0-1.88.1-2.61.42-.73.31-1.25.73-1.67,1.25s-.63,1.15-.63,1.88c0,.52.1,1.04.42,1.46s.63.73,1.04,1.04.94.52,1.46.73,1.15.31,1.67.52l2.61.63c1.04.21,1.98.52,3.02.94.94.42,1.77.94,2.61,1.56.73.63,1.36,1.36,1.77,2.29s.63,1.88.63,3.13c0,1.56-.42,3.02-1.25,4.27-.83,1.25-1.98,2.19-3.55,2.82-1.56.63-3.44,1.04-5.63,1.04s-3.96-.31-5.53-.94-2.82-1.67-3.65-2.92c-.83-1.25-1.36-2.82-1.46-4.59h4.9c.1.94.31,1.77.83,2.4.52.63,1.15,1.15,1.98,1.46.83.31,1.77.42,2.82.42s1.98-.21,2.82-.52c.83-.31,1.46-.83,1.88-1.36.42-.63.73-1.25.73-2.09,0-.73-.21-1.25-.63-1.77s-.94-.83-1.67-1.15-1.56-.63-2.61-.83l-3.13-.83c-2.29-.63-4.07-1.46-5.32-2.61s-1.98-2.71-1.98-4.69c0-1.56.42-3.02,1.36-4.27.83-1.25,2.09-2.19,3.55-2.82,1.46-.63,3.23-1.04,5.11-1.04,1.98,0,3.65.31,5.11,1.04,1.46.63,2.61,1.56,3.44,2.82.83,1.15,1.25,2.5,1.25,4.07l-4.59-.1h0Zm17.62,20.23c-2.09,0-3.86-.42-5.32-1.25-1.46-.83-2.61-2.09-3.44-3.65s-1.25-3.44-1.25-5.63.42-3.96,1.25-5.53c.83-1.56,1.98-2.82,3.34-3.75,1.46-.94,3.13-1.36,5.11-1.36,1.25,0,2.5.21,3.55.63,1.15.42,2.09,1.04,3.02,1.88.83.83,1.56,1.88,2.09,3.23.52,1.25.73,2.82.73,4.59v1.46h-16.79v-3.23h12.2c0-.94-.21-1.77-.63-2.5s-.94-1.25-1.67-1.67c-.73-.42-1.46-.63-2.4-.63s-1.88.21-2.61.73-1.36,1.04-1.77,1.88c-.42.73-.63,1.56-.63,2.5v2.82c0,1.15.21,2.19.63,3.02s1.04,1.46,1.88,1.98c.83.42,1.67.63,2.71.63.73,0,1.36-.1,1.88-.31.52-.21,1.04-.52,1.46-.94s.73-.83.94-1.46l4.48.52c-.31,1.15-.83,2.19-1.67,3.13-.83.83-1.77,1.56-3.02,2.09-1.04.63-2.4.83-4.07.83Zm21.37,0c-2.09,0-3.75-.42-5.21-1.36s-2.61-2.09-3.34-3.75c-.83-1.56-1.15-3.44-1.15-5.53s.42-3.96,1.25-5.53c.83-1.56,1.88-2.82,3.34-3.75,1.46-.94,3.23-1.36,5.21-1.36,1.67,0,3.13.31,4.38.94,1.25.63,2.29,1.46,3.13,2.61.73,1.15,1.25,2.4,1.36,3.86h-4.59c-.21-.94-.63-1.77-1.36-2.5-.73-.63-1.67-1.04-2.82-1.04-.94,0-1.88.31-2.61.83s-1.36,1.25-1.77,2.29c-.42.94-.63,2.19-.63,3.55s.21,2.61.63,3.65.94,1.77,1.67,2.29,1.67.83,2.61.83c.73,0,1.36-.1,1.88-.42s1.04-.63,1.46-1.15.63-1.15.83-1.88h4.59c-.1,1.46-.52,2.71-1.25,3.86s-1.77,1.98-3.02,2.61c-1.36.63-2.82.94-4.59.94Zm25.02-9.07v-11.89h4.8v20.54h-4.69v-3.65h-.21c-.42,1.15-1.25,2.09-2.29,2.82s-2.29,1.04-3.86,1.04c-1.36,0-2.5-.31-3.55-.94s-1.77-1.46-2.4-2.61c-.63-1.15-.83-2.5-.83-4.17v-13.03h4.8v12.3c0,1.25.31,2.29,1.04,3.13.73.73,1.67,1.15,2.82,1.15.73,0,1.36-.21,2.09-.52.63-.31,1.25-.83,1.67-1.56.42-.63.63-1.56.63-2.61Zm9.07,8.65v-20.44h4.69v3.44h.21c.42-1.15,1.04-2.09,1.88-2.71.94-.63,1.98-.94,3.13-.94h.94c.31,0,.63,0,.83.1v4.48c-.21-.1-.52-.1-.94-.21-.42-.1-.83-.1-1.25-.1-.83,0-1.67.21-2.4.52-.73.42-1.25.94-1.67,1.56-.42.63-.63,1.46-.63,2.29v11.99h-4.8Zm22.31.42c-2.09,0-3.86-.42-5.32-1.25-1.46-.83-2.61-2.09-3.44-3.65s-1.25-3.44-1.25-5.63.42-3.96,1.25-5.53,1.98-2.82,3.34-3.75c1.46-.94,3.13-1.36,5.11-1.36,1.25,0,2.5.21,3.55.63,1.15.42,2.09,1.04,3.02,1.88.83.83,1.56,1.88,2.09,3.23.52,1.25.73,2.82.73,4.59v1.46h-16.68v-3.23h12.2c0-.94-.21-1.77-.63-2.5-.42-.73-.94-1.25-1.67-1.67-.73-.42-1.46-.63-2.4-.63s-1.88.21-2.61.73-1.36,1.04-1.77,1.88c-.42.73-.63,1.56-.63,2.5v2.82c0,1.15.21,2.19.63,3.02.42.83,1.04,1.46,1.88,1.98.83.42,1.67.63,2.71.63.73,0,1.36-.1,1.88-.31.52-.21,1.04-.52,1.46-.94s.73-.83.94-1.46l4.48.52c-.31,1.15-.83,2.19-1.67,3.13-.83.83-1.77,1.56-3.02,2.09-1.15.63-2.5.83-4.17.83Z"/>
  </g>
</svg>