<svg width="2060" height="5313" viewBox="0 0 2060 5313" fill="none" xmlns="http://www.w3.org/2000/svg">
<path opacity="0.1" fill-rule="evenodd" clip-rule="evenodd" d="M1603 864.508C1603.01 889.36 1603.91 914.256 1605.69 939.15C1619.46 1130.97 1685.66 1315.18 1796.93 1471.29L1800.59 1476.1C1807.73 1486.09 1815.24 1496.07 1822.75 1505.87L2060 1822.21V0C1916.31 97.105 1798.91 229.344 1718.95 384.738C1642.68 532.97 1603.08 697.226 1603 863.526V864.508ZM2060 2489.19V4310.71C2007.68 4275.33 1958.37 4234.97 1912.8 4189.96C1736.72 4016.03 1628.21 3784.16 1606.95 3536.4C1585.69 3288.63 1653.09 3041.38 1796.93 2839.47L1800.59 2834.66C1807.73 2824.68 1815.24 2814.69 1822.75 2804.89L2060 2489.19Z" fill="url(#paint0_linear_2_2266)"/>
<defs>
<linearGradient id="paint0_linear_2_2266" x1="2135.5" y1="6868.25" x2="3567.87" y2="-983.003" gradientUnits="userSpaceOnUse">
<stop offset="0.0647582" stop-color="#FC2659"/>
<stop offset="0.447786" stop-color="#A989F5"/>
<stop offset="0.77857" stop-color="#7759C2"/>
<stop offset="0.966821" stop-color="white"/>
</linearGradient>
</defs>
</svg>
