<svg width="101" height="38" viewBox="0 0 101 38" fill="none" xmlns="http://www.w3.org/2000/svg">
<path d="M8.01815 11.8525C7.87998 11.8525 7.74182 11.7143 7.87999 11.5762L8.84714 10.1945C8.98531 10.0564 9.12347 9.91818 9.3998 9.91818H26.8086C26.9468 9.91818 27.0849 10.0564 26.9468 10.1945L26.1178 11.438C25.9796 11.5762 25.8415 11.7143 25.5651 11.7143L8.01815 11.8525ZM0.695395 16.2738C0.55723 16.2738 0.419065 16.1356 0.55723 15.9975L1.52439 14.6158C1.66255 14.4776 1.80072 14.3395 2.07705 14.3395H24.3216C24.4598 14.3395 24.598 14.4776 24.598 14.6158L24.1835 15.9975C24.1835 16.1356 23.9071 16.2738 23.769 16.2738H0.695395ZM12.4394 20.8332C12.3013 20.8332 12.1631 20.6951 12.3013 20.5569L12.9921 19.3134C13.1303 19.1753 13.2684 19.0371 13.5448 19.0371H23.2163C23.3545 19.0371 23.4927 19.1753 23.4927 19.3134L23.3545 20.4187C23.3545 20.5569 23.2163 20.6951 23.0782 20.6951L12.4394 20.8332ZM63.0079 10.8853L54.8561 12.9578C54.1653 13.096 54.0272 13.2342 53.4745 12.4052C52.7837 11.5762 52.231 11.0235 51.1257 10.609C48.0861 9.08919 45.0464 9.50369 42.2831 11.2998C38.9671 13.3723 37.3092 16.5501 37.3092 20.5569C37.3092 24.4255 40.0725 27.6033 43.9411 28.156C47.2571 28.5705 50.0204 27.4652 52.231 24.9782C52.6455 24.4255 53.06 23.8729 53.6127 23.1821H44.2174C43.2503 23.1821 42.9739 22.4912 43.2503 21.6622C43.9411 20.1424 45.0464 17.6554 45.7372 16.412C45.8754 16.1356 46.2899 15.583 46.9807 15.583H64.6659C64.5277 16.9646 64.5277 18.2081 64.3895 19.5898C63.8369 23.0439 62.5934 26.3599 60.3828 29.1232C56.9286 33.6826 52.3692 36.5841 46.5662 37.4131C41.7305 38.1039 37.3092 37.1367 33.4405 34.2353C29.8482 31.472 27.7758 27.8797 27.2231 23.4584C26.5323 18.2081 28.1903 13.3723 31.3681 9.22736C34.8222 4.6679 39.3816 1.76644 45.0464 0.799278C49.6059 -0.0297134 54.0272 0.522946 57.8958 3.14809C60.5209 4.80607 62.3171 7.15488 63.5606 10.0564C63.6987 10.609 63.5606 10.7472 63.0079 10.8853Z" fill="#00ACD7"/>
<path d="M79.0347 37.8276C74.6135 37.6894 70.6067 36.4459 67.1525 33.5444C64.2511 31.0575 62.4549 27.8797 61.9023 24.1492C61.0733 18.6226 62.5931 13.7868 65.909 9.50368C69.5013 4.80606 73.7845 2.45725 79.5874 1.35193C84.5613 0.522939 89.259 0.937434 93.4039 3.8389C97.2725 6.46405 99.6213 10.0563 100.312 14.754C101.141 21.3859 99.2069 26.6362 94.7856 31.1956C91.6078 34.5116 87.601 36.4459 83.1797 37.4131C81.6599 37.6894 80.2782 37.6894 79.0347 37.8276ZM90.6406 18.2081C90.6406 17.5173 90.6406 17.1028 90.5025 16.5501C89.6735 11.7143 85.2522 8.95102 80.5546 10.0563C75.9951 11.0235 73.0936 13.925 71.9883 18.4844C71.1593 22.2149 72.9555 26.0835 76.4096 27.7415C79.0347 28.8468 81.798 28.7087 84.285 27.4652C88.2918 25.5309 90.3643 22.3531 90.6406 18.2081Z" fill="#00ACD7"/>
</svg>
